celive系统说明

1.名称:CElive企业在线客服系统
2.简介:CElive是一套免安装客户端,支持JS调用,支持多用户,多部门,任务分配,
支持自定义模板,含带缓存机制,能够自动生成多元化调用代码的多语言在线客服系统.
是企业提供各类线上支持的便捷易管理操作的服务系统.
3.功能:1.API调用,JS任意地方调用
       2.多部门工作
       3.多客服设置
       4.任务分配
       5.主动提示
       6.访客详细信息收集
       7.缓存机制
       8.灵活生成调用代码
       9.权限控制
       10.状态控制
       11.提示控制
       12.记录查询
       13.多语言
       14.自定义模板
       15.便捷回复
       16.快速安装